Albert Park (Joon Young) - The Cyclistic Bike-share Analysis Case Study
…
# Geographical mapping of ridership by membership, using leaflet
# Prepare data in a smaller set for plotting - limit to ride frequency over 1200

dfs_ride_start_loc <- 
  full_year_trips |> 
    select(start_station_name, start_lat, start_lng, member_casual) |> 
    group_by(start_station_name, start_lat, start_lng, member_casual) |> 
    summarize(
      ride_frequency = n()
      ) |> 
    filter(ride_frequency >= 1200) # limit the ride_frequency >= 1200

dfs_ride_start_loc

# A tibble: 614 × 5
# Groups:   start_station_name, start_lat, start_lng [377]
   start_station_name         start_lat start_lng member_casual ride_frequency
   <chr>                          <dbl>     <dbl> <chr>                  <int>
 1 900 W Harrison St               41.9     -87.6 casual                  1728
 2 900 W Harrison St               41.9     -87.6 member                  5506
 3 Aberdeen St & Jackson Blvd      41.9     -87.7 casual                  1520
 4 Aberdeen St & Jackson Blvd      41.9     -87.7 member                  5750
 5 Aberdeen St & Monroe St         41.9     -87.7 casual                  1581
 6 Aberdeen St & Monroe St         41.9     -87.7 member                  4349
 7 Aberdeen St & Randolph St       41.9     -87.7 casual                  1822
 8 Aberdeen St & Randolph St       41.9     -87.7 member                  3850
 9 Ada St & Washington Blvd        41.9     -87.7 casual                  1322
10 Ada St & Washington Blvd        41.9     -87.7 member                  3010
# ℹ 604 more rows
…
